…
# combinations of 4 parameter for each model
# resultFreq = result %>% dplyr::group_by(X1,X2,X3,X4) %>% dplyr::summarise(n = n(),minAUC = min(AUC),maxAUC = max(AUC))
# print(as_tibble(resultFreq %>% arrange(desc(n),desc(minAUC))),n=10)
# resultFreq4 = resultFreq; result4 = result

# combinations of 3 parameter for each model
resultFreq = result %>% dplyr::group_by(X1,X2,X3) %>% dplyr::summarise(n = n(),minAUC = min(AUC),maxAUC = max(AUC))
print(as_tibble(resultFreq %>% arrange(desc(n),desc(minAUC))),n=10)
resultFreq3 = resultFreq; result3 = result
```

> print(as_tibble(resultFreq3 %>% arrange(desc(n),desc(minAUC))),n=10)
# A tibble: 169 x 6
   X1             X2             X3                 n minAUC maxAUC
   <chr>          <chr>          <chr>          <int>  <dbl>  <dbl>
 1 herbAbund      ring           treeAbund          4  0.907  0.929
 2 ring           shrubAbund     treeAbund          4  0.900  0.926
 3 plant_comunity ring           zone               3  0.917  0.947
 4 plant_comunity ring           shrubAbund         3  0.917  0.935
 5 herbAbund      plant_comunity ring               3  0.916  0.947
 6 ring           treeAbund      zone               3  0.912  0.937
 7 herbAbund      plant_comunity shrubAbund         3  0.909  0.947
 8 herbAbund      humus          plant_comunity     3  0.909  0.938
 9 humus          plant_comunity ring               3  0.908  0.943
10 humus          ring           treeAbund          3  0.903  0.937
# … with 159 more rows
…
